D:\3bi\JobEasy\EasyJob-ejb\src\main\java\Job\Module\Post.java
D:\3bi\JobEasy\EasyJob-ejb\src\main\java\Services\SpecialltyEntityManager.java
D:\3bi\JobEasy\EasyJob-ejb\src\main\java\Services\DomainEntityManager.java
D:\3bi\JobEasy\EasyJob-ejb\src\main\java\Job\Module\Experience.java
D:\3bi\JobEasy\EasyJob-ejb\src\main\java\Services\CvEntityManager.java
D:\3bi\JobEasy\EasyJob-ejb\src\main\java\Services\JobSeekerEntityManger.java
D:\3bi\JobEasy\EasyJob-ejb\src\main\java\Job\Module\Offre.java
D:\3bi\JobEasy\EasyJob-ejb\src\main\java\Services\ExperienceEntityManager.java
D:\3bi\JobEasy\EasyJob-ejb\src\main\java\Services\DegreeEntityManager.java
D:\3bi\JobEasy\EasyJob-ejb\src\main\java\Services\MediaEntityManger.java
D:\3bi\JobEasy\EasyJob-ejb\src\main\java\Job\Module\Comment.java
D:\3bi\JobEasy\EasyJob-ejb\src\main\java\Job\Module\media.java
D:\3bi\JobEasy\EasyJob-ejb\src\main\java\Job\Module\Domains.java
D:\3bi\JobEasy\EasyJob-ejb\src\main\java\Services\EntityManagerFactory.java
D:\3bi\JobEasy\EasyJob-ejb\src\main\java\Job\Module\JobSeeker.java
D:\3bi\JobEasy\EasyJob-ejb\src\main\java\Job\Module\CV.java
D:\3bi\JobEasy\EasyJob-ejb\src\main\java\Services\PostEntityManager.java
D:\3bi\JobEasy\EasyJob-ejb\src\main\java\Services\CommentEntityManager.java
D:\3bi\JobEasy\EasyJob-ejb\src\main\java\Job\Module\User.java
D:\3bi\JobEasy\EasyJob-ejb\src\main\java\Services\AdminEntitymanger.java
D:\3bi\JobEasy\EasyJob-ejb\src\main\java\Job\Module\Admin.java
D:\3bi\JobEasy\EasyJob-ejb\src\main\java\Job\Module\Degree.java
D:\3bi\JobEasy\EasyJob-ejb\src\main\java\Services\JobProviderEntityManager.java
D:\3bi\JobEasy\EasyJob-ejb\src\main\java\Services\OffreEntityManager.java
D:\3bi\JobEasy\EasyJob-ejb\src\main\java\Job\Module\specialty.java
D:\3bi\JobEasy\EasyJob-ejb\src\main\java\Job\Module\JobProvider.java
D:\3bi\JobEasy\EasyJob-ejb\src\main\java\Services\Resource.java
